{
  "title_dialog_not_access": "Sin Acceso",
  "message_dialog_not_access" : "Lo sentimos, no tiene acceso a la App, compruebe sus credenciales.",
  "btn_close_dialog": "CERRAR",
  "btn_cancel_dialog": "CANCELAR",
  "btn_ok_dialog": "ACEPTAR",
  "email_required": "Email is required.",
  "password": "Contraseña",
  "email": "Email",
  "password_required": "Password is required.",
  "btn_login": "LOG IN",
  "retry": "Intentar",
  "page_login": "Login",
  "page_promos": "Mis Promos",
  "page_user": "Mi Cuenta",
  "page_shopping": "Productos",
  "tab_promotions": "Promociones",
  "tab_discounts": "Descuentos",
  "vip_card_blocked": "Su tarjeta está bloqueada, por favor, contacte con Grupo Gedauto.",
  "blocked_card": "Tarjeta Bloqueada",
  "empty_products_list": "No existen Productos disponibles.",
  "empty_promos_list": "No existen Promociones disponibles.",
  "empty_discounts_list": "No existen Descuentos disponibles.",
  "empty_email": "Por favor, introduzca un Email.",
  "empty_password": "Por favor, introduzca la contraseña.",
  "invalid_email": "Por favor introduzca un Email válido.",
  "error_network": "No dispone de conexión. Inténtelo de nuevo cuando disponga de acceso a internet.",
  "error_login": "Se ha producido un error. Verifique sus credenciales, conexión a internet e inténtelo de nuevo.",
  "error_credentials": "Datos de acceso incorrectos. Por favor, verifique sus credenciales o contacto con Gedauto",
  "error_load_products": "Se ha producido un error al descargar los productos. Verifique su conexión e inténtelo de nuevo.",
  "error_load_discounts": "Se ha producido un error al descargar sus descuentos. Verifique su conexión e inténtelo de nuevo.",
  "error_load_profile": "Se ha producido un error al descargar su perfil. Verifique su conexión e inténtelo de nuevo.",
  "error_load_promotions": "Se ha producido un error al descargar sus promociones. Verifique su conexión e inténtelo de nuevo.",
  "message_new_promo_intro": "!Tiene una nueva promoción en ",
  "message_new_promo_body": " Por favor, revise la sección de ",
  "warning_remove_account": "¿Realmente desea eliminar su cuenta? Una vez eliminada no podrá acceder a la plataforma.",
  "title_new_promotion": "Nueva Promoción",
  "title_error_popup": "Se ha producido un error",
  "title_remove_popup": "Eliminar Cuenta",

  "btn_info": "+ Info",
  "nif": "NIF: ",
  "vip_code": "CÓDIGO VIP"
}